.............................
----------------------------------------------------------------------
Ran 29 tests in 0.248s

OK
Name             Stmts   Miss Branch BrPart  Cover   Missing
------------------------------------------------------------
Collatz.py          75      7     48      8    86%   52, 54, 60-62, 65->64, 68, 71->70, 74, 78->77
TestCollatz.py     123      0      0      0   100%
------------------------------------------------------------
TOTAL              198      7     48      8    93%
