1 10 20
100 200 125
201 210 89
900 1000 174
900 900 55
1 999999 525
11 39 112
12 2654 209
13 1644 182
14 9596 262
15 849 171
16 77 116
17 58 113
18 45 112
19 36 112
20 23 16
21 12 21
22 94 116
23 81 116
24 71 113
25 62 113
26 520 144
27 4 112
28 31 107
29 24 112
30 156 122
31 96 116
32 82 116
33 72 113
34 61 113
35 54 113
36 45 110
37 356 144
38 2 112
39 12 112
40 921 179
41 887 179
42 798 171
43 54 113
44 2521 209
45 1631 182
46 33 110
47 65 113
48 41 110
49 821 171
50 921 179
51 62 113
52 26 112
53 4187 238
54 489 144
55 654 145
56 852 171
57 551 144
58 565 144
59 9849 262
60 489 144
61 45789 324
62 64 108
63 65 108
64 456 144
66 54 113
67 5646 238
68 465 144
69 12 113
70 56 108
71 15 113
72 46455 324
73 145 122
74 5614 238
75 65 116
76 14 116
77 9454 262
78 15 116
79 145 122
80 342 144
81 2111 182
82 124 119
83 13 116
84 65 116
85 49 116
86 489 144
87 7 116
88 61 116
89 38561 324
80 14 116
81 3241 217
82 654 145
83 98 119
84 44 116
85 21 116
86 3154 217
87 654 145
88 65 116
89 465 144
90 465 144
91 46 116
92 546 144
93 54 116
94 2174 182
95 498 144
96 5156 238
97 465 144
98 465 144
99 13 119
483 226 144
752 743 140
111 249 128
166 217 125
285 841 171
363 562 142
303 993 179
426 138 144
338 43 144
90 881 179
6788 2206 262
9493 5274 262
886 2683 209
1884 1117 182
1425 9766 262
3765 662 238
9848 6428 260
8560 2210 262
7881 8083 252
5102 6171 262
46 89 116
88 78 111
99 11 119
10 40 112
92 57 116
6 18 21
46 93 116
86 55 116
43 98 119
80 14 116
605 315 144
484 73 144
41 748 171
338 467 134
919 945 174
277 769 171
867 693 171
112 377 144
52 616 144
141 798 171
5911 9350 262
2200 7204 262
8777 8267 234
8807 4007 262
5965 5413 236
4119 9791 262
3626 7869 262
4450 1359 238
5463 1654 238
9839 5221 262
848694 570837 525
737838 549362 509
827990 212182 509
604868 844486 525
206491 713608 509
336592 254927 407
435543 383986 449
887296 4931 525
678467 233345 509
239910 840803 525
748277 239439 509
808328 115954 509
500030 771611 509
119834 113901 349
255666 808704 509
746738 12464 509
195375 371092 443
628336 736774 504
297947 590153 470
52828 268889 443
