1 10 20
100 200 125
201 210 89
900 1000 174
28472 23036 308
7730 2438 262
41916 19038 324
25441 3826 282
21887 5725 279
20388 4881 279
34094 31677 285
21083 37597 324
23985 484 282
14952 44397 324
10896 10115 255
16544 1882 276
32410 11083 308
42788 726 324
31273 38553 324
28941 13355 308
27529 29174 259
28249 42547 324
6104 47406 324
22495 5427 279
44096 12892 324
12781 5741 268
14969 1426 276
28382 25003 308
39603 43531 306
20113 42380 324
43030 16048 324
27961 7682 308
11857 4854 268
13731 20442 279
35843 15270 324
30943 12808 308
38044 956 324
710 41245 324
10929 41295 324
42660 27164 324
34144 35139 311
16664 1625 276
23508 7590 279
1739 27842 308
3919 3151 238
23983 19722 282
14027 24718 282
49985 30569 324
39739 47734 314
27873 22521 308
49371 845 324
37805 29155 324
20419 24624 282
7901 32235 308
28341 11629 308
29679 34344 311
6365 22688 279
46226 17161 324
28652 1723 308
35377 18682 311
33398 29978 285
45728 40860 314
34528 29679 311
12762 39665 324
46260 41318 314
38099 22394 324
42948 18458 324
35212 45807 324
7726 41573 324
18165 9775 279
37476 7655 324
4140 2262 238
40635 14842 324
26279 34755 311
17578 37136 324
49936 13789 324
29405 38358 324
21790 7768 279
24299 28811 308
26233 1453 282
25995 34410 311
10942 23374 279
9876 49856 324
47350 32114 324
49289 28481 324
33602 12201 308
44604 18009 324
33279 42096 324
6778 42708 324
26971 14876 308
42451 10638 324
5094 17801 279
45396 12447 324
7377 37770 324
1560 10206 262
9559 25200 282
36505 10818 324
33454 4678 308
27846 34413 311
11353 11531 237
28383 43187 324
19638 31910 308
48250 26037 324
36962 25015 324
18252 7306 279
21221 22790 269
13437 27726 308
32475 10579 308
36015 2104 324
10713 32405 308
11371 39380 324
30059 14792 308
20975 13192 279
44869 40005 288
16673 16909 266
8396 28038 308
26052 44870 324
21947 17666 279
19934 2171 279
1356 9219 262
34733 46481 324
43085 11708 324
14605 42472 324
21603 3119 279
23684 47484 324
16327 41865 324
35534 29349 311
37086 18978 324
24846 12681 282
688266 61943 509
511015 29189 449
404481 30759 443
661494 53945 509
358058 20970 443
230941 99223 443
871259 14996 525
345402 94443 443
297886 64511 443
171828 67405 383
758171 29916 509
853655 95508 525
805454 87766 509
152736 90212 375
580584 60871 470
602361 48481 470
723086 77698 509
139333 18117 354
667384 62375 509
236274 23529 443
998002 999002 396
